{
    "provisioners": [
      {
        "type": "shell",
        "execute_command": "echo 'vagrant' | {{.Vars}} sudo -S -E bash '{{.Path}}'",
        "script": "scripts/ansible.sh"
      },
      {
        "type": "ansible-local",
        "playbook_file": "ansible/main.yml",
        "galaxy_file": "requirements.yml"
      },
      {
        "type": "shell",
        "execute_command": "echo 'vagrant' | {{.Vars}} sudo -S -E bash '{{.Path}}'",
        "script": "scripts/cleanup.sh"
      }
    ],
    "builders": [
      {
        "type": "virtualbox-iso",
        "boot_command": [
          "<tab> text ks=http://{{ .HTTPIP }}:{{ .HTTPPort }}/ks.cfg<enter><wait>"
        ],
        "boot_wait": "10s",
        "disk_size": 81920,
        "guest_os_type": "RedHat_64",
        "headless": true,
        "http_directory": "http",
        "iso_urls": [
          "CentOS-7-x86_64-Minimal-1708.iso",
          "http://mirrors.ocf.berkeley.edu/centos/7/isos/x86_64/CentOS-7-x86_64-Minimal-1708.iso"
        ],
        "iso_checksum_type": "sha256",
        "iso_checksum": "bba314624956961a2ea31dd460cd860a77911c1e0a56e4820a12b9c5dad363f5",
        "ssh_username": "vagrant",
        "ssh_password": "vagrant",
        "ssh_port": 22,
        "ssh_wait_timeout": "10000s",
        "shutdown_command": "echo 'vagrant'|sudo -S /sbin/halt -h -p",
        "guest_additions_path": "VBoxGuestAdditions_{{.Version}}.iso",
        "virtualbox_version_file": ".vbox_version",
        "vm_name": "packer-centos-7-x86_64",
        "vboxmanage": [
          [
            "modifyvm",
            "{{.Name}}",
            "--memory",
            "512"
          ],
          [
            "modifyvm",
            "{{.Name}}",
            "--cpus",
            "2"
          ]
        ]
      },
      {
        "type": "vmware-iso",
        "boot_command": [
          "<tab> text ks=http://{{ .HTTPIP }}:{{ .HTTPPort }}/ks.cfg<enter><wait>"
        ],
        "boot_wait": "10s",
        "disk_size": 81920,
        "guest_os_type": "centos-64",
        "headless": true,
        "http_directory": "http",
        "iso_urls": [
          "CentOS-7-x86_64-Minimal-1708.iso",
          "http://mirrors.ocf.berkeley.edu/centos/7/isos/x86_64/CentOS-7-x86_64-Minimal-1708.iso"
        ],
        "iso_checksum_type": "sha256",
        "iso_checksum": "bba314624956961a2ea31dd460cd860a77911c1e0a56e4820a12b9c5dad363f5",
        "ssh_username": "vagrant",
        "ssh_password": "vagrant",
        "ssh_port": 22,
        "ssh_wait_timeout": "10000s",
        "shutdown_command": "echo 'vagrant'|sudo -S /sbin/halt -h -p",
        "tools_upload_flavor": "linux",
        "vm_name": "packer-centos-7-x86_64",
        "vmx_data": {
          "cpuid.coresPerSocket": "1",
          "memsize": "512",
          "numvcpus": "2"
        }
      }
    ],
    "post-processors": [
      {
        "output": "builds/{{.Provider}}-centos7.box",
        "type": "vagrant"
      }
    ]
  }
